{
    "fluentMethods": true,
    "relationships": [],
    "fields": [
        {
            "fieldName": "bar",
            "fieldType": "String",
            "fieldValidateRules": [
                "required",
                "minlength"
            ],
            "fieldValidateRulesMinlength": "8"
        },
        {
            "fieldName": "baz",
            "fieldType": "Integer",
            "fieldValidateRules": [
                "required",
                "min",
                "max"
            ],
            "fieldValidateRulesMin": "100",
            "fieldValidateRulesMax": "999"
        }
    ],
    "changelogDate": "20170404122749",
    "dto": "no",
    "service": "serviceClass",
    "entityTableName": "foo",
    "pagination": "no"
}
